<svg width="24" height="25" viewBox="0 0 24 25" fill="none" xmlns="http://www.w3.org/2000/svg">
<path d="M0 8C0 6.89062 0.390625 5.94531 1.17188 5.16406C1.95312 4.38281 2.89844 3.99219 4.00781 3.99219H19.9922C21.1016 3.99219 22.0469 4.38281 22.8281 5.16406C23.6094 5.94531 24 6.89062 24 8V21.0078C24 22.1016 23.6094 23.0391 22.8281 23.8203C22.0469 24.6016 21.1016 24.9922 19.9922 24.9922H4.00781C2.89844 24.9922 1.95312 24.6016 1.17188 23.8203C0.390625 23.0391 0 22.1016 0 21.0078V8ZM4.00781 6.00781C3.44531 6.00781 2.96875 6.20313 2.57812 6.59375C2.1875 6.98437 1.99219 7.45312 1.99219 8V21.0078C1.99219 21.5547 2.1875 22.0234 2.57812 22.4141C2.96875 22.8047 3.44531 23 4.00781 23H19.9922C20.5547 23 21.0312 22.8047 21.4219 22.4141C21.8125 22.0234 22.0078 21.5547 22.0078 21.0078V8C22.0078 7.45312 21.8125 6.98437 21.4219 6.59375C21.0312 6.20313 20.5547 6.00781 19.9922 6.00781H4.00781ZM12 12.0078C11.1719 12.0078 10.4609 12.3047 9.86719 12.8984C9.28906 13.4766 9 14.1797 9 15.0078C9 15.8359 9.28906 16.5469 9.86719 17.1406C10.4609 17.7188 11.1719 18.0078 12 18.0078C12.8281 18.0078 13.5312 17.7188 14.1094 17.1406C14.7031 16.5469 15 15.8359 15 15.0078C15 14.7266 15.0938 14.4922 15.2812 14.3047C15.4844 14.1016 15.7266 14 16.0078 14C16.2734 14 16.5 14.1016 16.6875 14.3047C16.8906 14.4922 16.9922 14.7266 16.9922 15.0078C16.9922 15.6953 16.8672 16.3438 16.6172 16.9531C16.3516 17.5625 15.9922 18.0938 15.5391 18.5469C15.0859 18.9844 14.5547 19.3359 13.9453 19.6016C13.3359 19.8672 12.6875 20 12 20C11.3125 20 10.6641 19.8672 10.0547 19.6016C9.44531 19.3359 8.91406 18.9844 8.46094 18.5469C8.00781 18.0938 7.64844 17.5625 7.38281 16.9531C7.13281 16.3438 7.00781 15.6953 7.00781 15.0078C7.00781 14.3047 7.13281 13.6562 7.38281 13.0625C7.64844 12.4531 8.00781 11.9219 8.46094 11.4688C8.91406 11.0156 9.44531 10.6562 10.0547 10.3906C10.6641 10.125 11.3125 9.99219 12 9.99219C12.2812 9.99219 12.5156 10.0938 12.7031 10.2969C12.9062 10.4844 13.0078 10.7188 13.0078 11C13.0078 11.2812 12.9062 11.5234 12.7031 11.7266C12.5156 11.9141 12.2812 12.0078 12 12.0078ZM6 0.992188C6.28125 0.992188 6.51562 1.09375 6.70312 1.29688C6.90625 1.48438 7.00781 1.71875 7.00781 2V6.99219C7.00781 7.27344 6.90625 7.51563 6.70312 7.71875C6.51562 7.90625 6.28125 8 6 8C5.71875 8 5.47656 7.90625 5.27344 7.71875C5.08594 7.51563 4.99219 7.27344 4.99219 6.99219V2C4.99219 1.71875 5.08594 1.48438 5.27344 1.29688C5.47656 1.09375 5.71875 0.992188 6 0.992188ZM18 0.992188C18.2812 0.992188 18.5156 1.09375 18.7031 1.29688C18.9062 1.48438 19.0078 1.71875 19.0078 2V6.99219C19.0078 7.27344 18.9062 7.51563 18.7031 7.71875C18.5156 7.90625 18.2812 8 18 8C17.7188 8 17.4766 7.90625 17.2734 7.71875C17.0859 7.51563 16.9922 7.27344 16.9922 6.99219V2C16.9922 1.71875 17.0859 1.48438 17.2734 1.29688C17.4766 1.09375 17.7188 0.992188 18 0.992188Z" fill="#243341"/>
</svg>
